<?xml version="1.0" encoding="UTF-8"?>
<testsuite xmlns:xsi="http://www.w3.org/2001/XMLSchema-instance" xsi:noNamespaceSchemaLocation="https://maven.apache.org/surefire/maven-surefire-plugin/xsd/surefire-test-report.xsd" name="com.example.editalsniffer.api.EditalsnifferApiApplicationTests" time="23.564" tests="1" errors="0" skipped="0" failures="0">
  <properties>
    <property name="sun.desktop" value="windows"/>
    <property name="awt.toolkit" value="sun.awt.windows.WToolkit"/>
    <property name="file.encoding.pkg" value="sun.io"/>
    <property name="java.specification.version" value="1.8"/>
    <property name="sun.cpu.isalist" value="amd64"/>
    <property name="sun.jnu.encoding" value="Cp1252"/>
    <property name="java.class.path" value="C:\workspace\editalsniffer-api\target\test-classes;C:\workspace\editalsniffer-api\target\classes;C:\Users\bruno\.m2\repository\org\springframework\boot\spring-boot-starter-data-jpa\2.0.2.RELEASE\spring-boot-starter-data-jpa-2.0.2.RELEASE.jar;C:\Users\bruno\.m2\repository\org\springframework\boot\spring-boot-starter\2.0.2.RELEASE\spring-boot-starter-2.0.2.RELEASE.jar;C:\Users\bruno\.m2\repository\org\springframework\boot\spring-boot-starter-logging\2.0.2.RELEASE\spring-boot-starter-logging-2.0.2.RELEASE.jar;C:\Users\bruno\.m2\repository\ch\qos\logback\logback-classic\1.2.3\logback-classic-1.2.3.jar;C:\Users\bruno\.m2\repository\ch\qos\logback\logback-core\1.2.3\logback-core-1.2.3.jar;C:\Users\bruno\.m2\repository\org\apache\logging\log4j\log4j-to-slf4j\2.10.0\log4j-to-slf4j-2.10.0.jar;C:\Users\bruno\.m2\repository\org\apache\logging\log4j\log4j-api\2.10.0\log4j-api-2.10.0.jar;C:\Users\bruno\.m2\repository\org\slf4j\jul-to-slf4j\1.7.25\jul-to-slf4j-1.7.25.jar;C:\Users\bruno\.m2\repository\javax\annotation\javax.annotation-api\1.3.2\javax.annotation-api-1.3.2.jar;C:\Users\bruno\.m2\repository\org\yaml\snakeyaml\1.19\snakeyaml-1.19.jar;C:\Users\bruno\.m2\repository\org\springframework\boot\spring-boot-starter-aop\2.0.2.RELEASE\spring-boot-starter-aop-2.0.2.RELEASE.jar;C:\Users\bruno\.m2\repository\org\aspectj\aspectjweaver\1.8.13\aspectjweaver-1.8.13.jar;C:\Users\bruno\.m2\repository\org\springframework\boot\spring-boot-starter-jdbc\2.0.2.RELEASE\spring-boot-starter-jdbc-2.0.2.RELEASE.jar;C:\Users\bruno\.m2\repository\com\zaxxer\HikariCP\2.7.9\HikariCP-2.7.9.jar;C:\Users\bruno\.m2\repository\org\springframework\spring-jdbc\5.0.6.RELEASE\spring-jdbc-5.0.6.RELEASE.jar;C:\Users\bruno\.m2\repository\org\hibernate\hibernate-core\5.2.17.Final\hibernate-core-5.2.17.Final.jar;C:\Users\bruno\.m2\repository\org\hibernate\javax\persistence\hibernate-jpa-2.1-api\1.0.0.Final\hibernate-jpa-2.1-api-1.0.0.Final.jar;C:\Users\bruno\.m2\repository\org\javassist\javassist\3.22.0-GA\javassist-3.22.0-GA.jar;C:\Users\bruno\.m2\repository\antlr\antlr\2.7.7\antlr-2.7.7.jar;C:\Users\bruno\.m2\repository\org\jboss\jandex\2.0.3.Final\jandex-2.0.3.Final.jar;C:\Users\bruno\.m2\repository\com\fasterxml\classmate\1.3.4\classmate-1.3.4.jar;C:\Users\bruno\.m2\repository\dom4j\dom4j\1.6.1\dom4j-1.6.1.jar;C:\Users\bruno\.m2\repository\org\hibernate\common\hibernate-commons-annotations\5.0.1.Final\hibernate-commons-annotations-5.0.1.Final.jar;C:\Users\bruno\.m2\repository\javax\transaction\javax.transaction-api\1.2\javax.transaction-api-1.2.jar;C:\Users\bruno\.m2\repository\org\springframework\data\spring-data-jpa\2.0.7.RELEASE\spring-data-jpa-2.0.7.RELEASE.jar;C:\Users\bruno\.m2\repository\org\springframework\data\spring-data-commons\2.0.7.RELEASE\spring-data-commons-2.0.7.RELEASE.jar;C:\Users\bruno\.m2\repository\org\springframework\spring-orm\5.0.6.RELEASE\spring-orm-5.0.6.RELEASE.jar;C:\Users\bruno\.m2\repository\org\springframework\spring-tx\5.0.6.RELEASE\spring-tx-5.0.6.RELEASE.jar;C:\Users\bruno\.m2\repository\org\springframework\spring-aspects\5.0.6.RELEASE\spring-aspects-5.0.6.RELEASE.jar;C:\Users\bruno\.m2\repository\org\springframework\boot\spring-boot-starter-web\2.0.2.RELEASE\spring-boot-starter-web-2.0.2.RELEASE.jar;C:\Users\bruno\.m2\repository\org\springframework\boot\spring-boot-starter-json\2.0.2.RELEASE\spring-boot-starter-json-2.0.2.RELEASE.jar;C:\Users\bruno\.m2\repository\com\fasterxml\jackson\datatype\jackson-datatype-jdk8\2.9.5\jackson-datatype-jdk8-2.9.5.jar;C:\Users\bruno\.m2\repository\com\fasterxml\jackson\module\jackson-module-parameter-names\2.9.5\jackson-module-parameter-names-2.9.5.jar;C:\Users\bruno\.m2\repository\org\springframework\boot\spring-boot-starter-tomcat\2.0.2.RELEASE\spring-boot-starter-tomcat-2.0.2.RELEASE.jar;C:\Users\bruno\.m2\repository\org\apache\tomcat\embed\tomcat-embed-core\8.5.31\tomcat-embed-core-8.5.31.jar;C:\Users\bruno\.m2\repository\org\apache\tomcat\embed\tomcat-embed-el\8.5.31\tomcat-embed-el-8.5.31.jar;C:\Users\bruno\.m2\repository\org\apache\tomcat\embed\tomcat-embed-websocket\8.5.31\tomcat-embed-websocket-8.5.31.jar;C:\Users\bruno\.m2\repository\org\hibernate\validator\hibernate-validator\6.0.9.Final\hibernate-validator-6.0.9.Final.jar;C:\Users\bruno\.m2\repository\javax\validation\validation-api\2.0.1.Final\validation-api-2.0.1.Final.jar;C:\Users\bruno\.m2\repository\org\springframework\spring-web\5.0.6.RELEASE\spring-web-5.0.6.RELEASE.jar;C:\Users\bruno\.m2\repository\org\springframework\spring-webmvc\5.0.6.RELEASE\spring-webmvc-5.0.6.RELEASE.jar;C:\Users\bruno\.m2\repository\org\springframework\spring-expression\5.0.6.RELEASE\spring-expression-5.0.6.RELEASE.jar;C:\Users\bruno\.m2\repository\org\springframework\boot\spring-boot-starter-mail\2.0.2.RELEASE\spring-boot-starter-mail-2.0.2.RELEASE.jar;C:\Users\bruno\.m2\repository\org\springframework\spring-context\5.0.6.RELEASE\spring-context-5.0.6.RELEASE.jar;C:\Users\bruno\.m2\repository\org\springframework\spring-context-support\5.0.6.RELEASE\spring-context-support-5.0.6.RELEASE.jar;C:\Users\bruno\.m2\repository\com\sun\mail\javax.mail\1.6.1\javax.mail-1.6.1.jar;C:\Users\bruno\.m2\repository\javax\activation\activation\1.1\activation-1.1.jar;C:\Users\bruno\.m2\repository\org\springframework\boot\spring-boot-devtools\2.0.2.RELEASE\spring-boot-devtools-2.0.2.RELEASE.jar;C:\Users\bruno\.m2\repository\org\springframework\boot\spring-boot\2.0.2.RELEASE\spring-boot-2.0.2.RELEASE.jar;C:\Users\bruno\.m2\repository\org\springframework\boot\spring-boot-autoconfigure\2.0.2.RELEASE\spring-boot-autoconfigure-2.0.2.RELEASE.jar;C:\Users\bruno\.m2\repository\org\springframework\boot\spring-boot-starter-test\2.0.2.RELEASE\spring-boot-starter-test-2.0.2.RELEASE.jar;C:\Users\bruno\.m2\repository\org\springframework\boot\spring-boot-test\2.0.2.RELEASE\spring-boot-test-2.0.2.RELEASE.jar;C:\Users\bruno\.m2\repository\org\springframework\boot\spring-boot-test-autoconfigure\2.0.2.RELEASE\spring-boot-test-autoconfigure-2.0.2.RELEASE.jar;C:\Users\bruno\.m2\repository\com\jayway\jsonpath\json-path\2.4.0\json-path-2.4.0.jar;C:\Users\bruno\.m2\repository\net\minidev\json-smart\2.3\json-smart-2.3.jar;C:\Users\bruno\.m2\repository\net\minidev\accessors-smart\1.2\accessors-smart-1.2.jar;C:\Users\bruno\.m2\repository\org\ow2\asm\asm\5.0.4\asm-5.0.4.jar;C:\Users\bruno\.m2\repository\junit\junit\4.12\junit-4.12.jar;C:\Users\bruno\.m2\repository\org\assertj\assertj-core\3.9.1\assertj-core-3.9.1.jar;C:\Users\bruno\.m2\repository\org\mockito\mockito-core\2.15.0\mockito-core-2.15.0.jar;C:\Users\bruno\.m2\repository\net\bytebuddy\byte-buddy\1.7.11\byte-buddy-1.7.11.jar;C:\Users\bruno\.m2\repository\net\bytebuddy\byte-buddy-agent\1.7.11\byte-buddy-agent-1.7.11.jar;C:\Users\bruno\.m2\repository\org\objenesis\objenesis\2.6\objenesis-2.6.jar;C:\Users\bruno\.m2\repository\org\hamcrest\hamcrest-core\1.3\hamcrest-core-1.3.jar;C:\Users\bruno\.m2\repository\org\hamcrest\hamcrest-library\1.3\hamcrest-library-1.3.jar;C:\Users\bruno\.m2\repository\org\skyscreamer\jsonassert\1.5.0\jsonassert-1.5.0.jar;C:\Users\bruno\.m2\repository\com\vaadin\external\google\android-json\0.0.20131108.vaadin1\android-json-0.0.20131108.vaadin1.jar;C:\Users\bruno\.m2\repository\org\springframework\spring-core\5.0.6.RELEASE\spring-core-5.0.6.RELEASE.jar;C:\Users\bruno\.m2\repository\org\springframework\spring-jcl\5.0.6.RELEASE\spring-jcl-5.0.6.RELEASE.jar;C:\Users\bruno\.m2\repository\org\springframework\spring-test\5.0.6.RELEASE\spring-test-5.0.6.RELEASE.jar;C:\Users\bruno\.m2\repository\org\xmlunit\xmlunit-core\2.5.1\xmlunit-core-2.5.1.jar;C:\Users\bruno\.m2\repository\org\springframework\boot\spring-boot-starter-thymeleaf\2.0.2.RELEASE\spring-boot-starter-thymeleaf-2.0.2.RELEASE.jar;C:\Users\bruno\.m2\repository\org\thymeleaf\thymeleaf-spring5\3.0.9.RELEASE\thymeleaf-spring5-3.0.9.RELEASE.jar;C:\Users\bruno\.m2\repository\org\thymeleaf\extras\thymeleaf-extras-java8time\3.0.1.RELEASE\thymeleaf-extras-java8time-3.0.1.RELEASE.jar;C:\Users\bruno\.m2\repository\org\thymeleaf\thymeleaf\3.0.9.RELEASE\thymeleaf-3.0.9.RELEASE.jar;C:\Users\bruno\.m2\repository\ognl\ognl\3.1.12\ognl-3.1.12.jar;C:\Users\bruno\.m2\repository\org\attoparser\attoparser\2.0.4.RELEASE\attoparser-2.0.4.RELEASE.jar;C:\Users\bruno\.m2\repository\org\unbescape\unbescape\1.1.5.RELEASE\unbescape-1.1.5.RELEASE.jar;C:\Users\bruno\.m2\repository\org\slf4j\slf4j-api\1.7.25\slf4j-api-1.7.25.jar;C:\Users\bruno\.m2\repository\mysql\mysql-connector-java\5.1.46\mysql-connector-java-5.1.46.jar;C:\Users\bruno\.m2\repository\org\flywaydb\flyway-core\5.0.7\flyway-core-5.0.7.jar;C:\Users\bruno\.m2\repository\org\hibernate\hibernate-java8\5.2.17.Final\hibernate-java8-5.2.17.Final.jar;C:\Users\bruno\.m2\repository\org\jboss\logging\jboss-logging\3.3.2.Final\jboss-logging-3.3.2.Final.jar;C:\Users\bruno\.m2\repository\com\fasterxml\jackson\datatype\jackson-datatype-jsr310\2.9.5\jackson-datatype-jsr310-2.9.5.jar;C:\Users\bruno\.m2\repository\com\fasterxml\jackson\core\jackson-annotations\2.9.0\jackson-annotations-2.9.0.jar;C:\Users\bruno\.m2\repository\com\fasterxml\jackson\core\jackson-core\2.9.5\jackson-core-2.9.5.jar;C:\Users\bruno\.m2\repository\com\fasterxml\jackson\core\jackson-databind\2.9.5\jackson-databind-2.9.5.jar;C:\Users\bruno\.m2\repository\org\apache\commons\commons-lang3\3.4\commons-lang3-3.4.jar;C:\Users\bruno\.m2\repository\org\springframework\boot\spring-boot-starter-security\2.0.2.RELEASE\spring-boot-starter-security-2.0.2.RELEASE.jar;C:\Users\bruno\.m2\repository\org\springframework\spring-aop\5.0.6.RELEASE\spring-aop-5.0.6.RELEASE.jar;C:\Users\bruno\.m2\repository\org\springframework\security\spring-security-config\5.0.5.RELEASE\spring-security-config-5.0.5.RELEASE.jar;C:\Users\bruno\.m2\repository\org\springframework\security\spring-security-web\5.0.5.RELEASE\spring-security-web-5.0.5.RELEASE.jar;C:\Users\bruno\.m2\repository\org\springframework\security\oauth\spring-security-oauth2\2.2.1.RELEASE\spring-security-oauth2-2.2.1.RELEASE.jar;C:\Users\bruno\.m2\repository\org\springframework\spring-beans\5.0.6.RELEASE\spring-beans-5.0.6.RELEASE.jar;C:\Users\bruno\.m2\repository\org\springframework\security\spring-security-core\5.0.5.RELEASE\spring-security-core-5.0.5.RELEASE.jar;C:\Users\bruno\.m2\repository\commons-codec\commons-codec\1.11\commons-codec-1.11.jar;C:\Users\bruno\.m2\repository\org\codehaus\jackson\jackson-mapper-asl\1.9.13\jackson-mapper-asl-1.9.13.jar;C:\Users\bruno\.m2\repository\org\codehaus\jackson\jackson-core-asl\1.9.13\jackson-core-asl-1.9.13.jar;C:\Users\bruno\.m2\repository\org\springframework\security\spring-security-jwt\1.0.9.RELEASE\spring-security-jwt-1.0.9.RELEASE.jar;C:\Users\bruno\.m2\repository\org\bouncycastle\bcpkix-jdk15on\1.56\bcpkix-jdk15on-1.56.jar;C:\Users\bruno\.m2\repository\org\bouncycastle\bcprov-jdk15on\1.56\bcprov-jdk15on-1.56.jar;C:\Users\bruno\.m2\repository\org\springframework\boot\spring-boot-configuration-processor\2.0.2.RELEASE\spring-boot-configuration-processor-2.0.2.RELEASE.jar;C:\Users\bruno\.m2\repository\net\sf\jasperreports\jasperreports\6.5.1\jasperreports-6.5.1.jar;C:\Users\bruno\.m2\repository\commons-beanutils\commons-beanutils\1.9.3\commons-beanutils-1.9.3.jar;C:\Users\bruno\.m2\repository\commons-collections\commons-collections\3.2.2\commons-collections-3.2.2.jar;C:\Users\bruno\.m2\repository\commons-digester\commons-digester\2.1\commons-digester-2.1.jar;C:\Users\bruno\.m2\repository\commons-logging\commons-logging\1.1.1\commons-logging-1.1.1.jar;C:\Users\bruno\.m2\repository\com\lowagie\itext\2.1.7.js6\itext-2.1.7.js6.jar;C:\Users\bruno\.m2\repository\org\jfree\jcommon\1.0.23\jcommon-1.0.23.jar;C:\Users\bruno\.m2\repository\org\jfree\jfreechart\1.0.19\jfreechart-1.0.19.jar;C:\Users\bruno\.m2\repository\org\eclipse\jdt\core\compiler\ecj\4.4.2\ecj-4.4.2.jar;C:\Users\bruno\.m2\repository\org\codehaus\castor\castor-xml\1.3.3\castor-xml-1.3.3.jar;C:\Users\bruno\.m2\repository\org\codehaus\castor\castor-core\1.3.3\castor-core-1.3.3.jar;C:\Users\bruno\.m2\repository\commons-lang\commons-lang\2.6\commons-lang-2.6.jar;C:\Users\bruno\.m2\repository\javax\inject\javax.inject\1\javax.inject-1.jar;C:\Users\bruno\.m2\repository\stax\stax\1.2.0\stax-1.2.0.jar;C:\Users\bruno\.m2\repository\stax\stax-api\1.0.1\stax-api-1.0.1.jar;C:\Users\bruno\.m2\repository\javax\xml\stream\stax-api\1.0-2\stax-api-1.0-2.jar;C:\Users\bruno\.m2\repository\org\apache\lucene\lucene-core\4.5.1\lucene-core-4.5.1.jar;C:\Users\bruno\.m2\repository\org\apache\lucene\lucene-analyzers-common\4.5.1\lucene-analyzers-common-4.5.1.jar;C:\Users\bruno\.m2\repository\org\apache\lucene\lucene-queryparser\4.5.1\lucene-queryparser-4.5.1.jar;C:\Users\bruno\.m2\repository\org\apache\lucene\lucene-queries\4.5.1\lucene-queries-4.5.1.jar;C:\Users\bruno\.m2\repository\org\apache\lucene\lucene-sandbox\4.5.1\lucene-sandbox-4.5.1.jar;C:\Users\bruno\.m2\repository\jakarta-regexp\jakarta-regexp\1.4\jakarta-regexp-1.4.jar;C:\Users\bruno\.m2\repository\org\olap4j\olap4j\0.9.7.309-JS-3\olap4j-0.9.7.309-JS-3.jar;C:\Users\bruno\.m2\repository\com\google\zxing\core\3.2.1\core-3.2.1.jar;C:\Users\bruno\.m2\repository\com\ibm\icu\icu4j\57.1\icu4j-57.1.jar;C:\Users\bruno\.m2\repository\net\sf\jasperreports\jasperreports-functions\6.5.1\jasperreports-functions-6.5.1.jar;C:\Users\bruno\.m2\repository\joda-time\joda-time\2.9.9\joda-time-2.9.9.jar;C:\Users\bruno\.m2\repository\net\sf\jasperreports\jasperreports-fonts\6.0.0\jasperreports-fonts-6.0.0.jar;C:\Users\bruno\.m2\repository\com\amazonaws\aws-java-sdk\1.11.274\aws-java-sdk-1.11.274.jar;C:\Users\bruno\.m2\repository\com\amazonaws\aws-java-sdk-transcribe\1.11.274\aws-java-sdk-transcribe-1.11.274.jar;C:\Users\bruno\.m2\repository\com\amazonaws\jmespath-java\1.11.274\jmespath-java-1.11.274.jar;C:\Users\bruno\.m2\repository\com\amazonaws\aws-java-sdk-autoscalingplans\1.11.274\aws-java-sdk-autoscalingplans-1.11.274.jar;C:\Users\bruno\.m2\repository\com\amazonaws\aws-java-sdk-workmail\1.11.274\aws-java-sdk-workmail-1.11.274.jar;C:\Users\bruno\.m2\repository\com\amazonaws\aws-java-sdk-servicediscovery\1.11.274\aws-java-sdk-servicediscovery-1.11.274.jar;C:\Users\bruno\.m2\repository\com\amazonaws\aws-java-sdk-cloud9\1.11.274\aws-java-sdk-cloud9-1.11.274.jar;C:\Users\bruno\.m2\repository\com\amazonaws\aws-java-sdk-serverlessapplicationrepository\1.11.274\aws-java-sdk-serverlessapplicationrepository-1.11.274.jar;C:\Users\bruno\.m2\repository\com\amazonaws\aws-java-sdk-alexaforbusiness\1.11.274\aws-java-sdk-alexaforbusiness-1.11.274.jar;C:\Users\bruno\.m2\repository\com\amazonaws\aws-java-sdk-resourcegroups\1.11.274\aws-java-sdk-resourcegroups-1.11.274.jar;C:\Users\bruno\.m2\repository\com\amazonaws\aws-java-sdk-comprehend\1.11.274\aws-java-sdk-comprehend-1.11.274.jar;C:\Users\bruno\.m2\repository\com\amazonaws\aws-java-sdk-translate\1.11.274\aws-java-sdk-translate-1.11.274.jar;C:\Users\bruno\.m2\repository\com\amazonaws\aws-java-sdk-sagemaker\1.11.274\aws-java-sdk-sagemaker-1.11.274.jar;C:\Users\bruno\.m2\repository\com\amazonaws\aws-java-sdk-iotjobsdataplane\1.11.274\aws-java-sdk-iotjobsdataplane-1.11.274.jar;C:\Users\bruno\.m2\repository\com\amazonaws\aws-java-sdk-sagemakerruntime\1.11.274\aws-java-sdk-sagemakerruntime-1.11.274.jar;C:\Users\bruno\.m2\repository\com\amazonaws\aws-java-sdk-kinesisvideo\1.11.274\aws-java-sdk-kinesisvideo-1.11.274.jar;C:\Users\bruno\.m2\repository\io\netty\netty-codec-http\4.1.24.Final\netty-codec-http-4.1.24.Final.jar;C:\Users\bruno\.m2\repository\io\netty\netty-codec\4.1.24.Final\netty-codec-4.1.24.Final.jar;C:\Users\bruno\.m2\repository\io\netty\netty-handler\4.1.24.Final\netty-handler-4.1.24.Final.jar;C:\Users\bruno\.m2\repository\io\netty\netty-buffer\4.1.24.Final\netty-buffer-4.1.24.Final.jar;C:\Users\bruno\.m2\repository\io\netty\netty-common\4.1.24.Final\netty-common-4.1.24.Final.jar;C:\Users\bruno\.m2\repository\io\netty\netty-transport\4.1.24.Final\netty-transport-4.1.24.Final.jar;C:\Users\bruno\.m2\repository\io\netty\netty-resolver\4.1.24.Final\netty-resolver-4.1.24.Final.jar;C:\Users\bruno\.m2\repository\com\amazonaws\aws-java-sdk-appsync\1.11.274\aws-java-sdk-appsync-1.11.274.jar;C:\Users\bruno\.m2\repository\com\amazonaws\aws-java-sdk-guardduty\1.11.274\aws-java-sdk-guardduty-1.11.274.jar;C:\Users\bruno\.m2\repository\com\amazonaws\aws-java-sdk-mq\1.11.274\aws-java-sdk-mq-1.11.274.jar;C:\Users\bruno\.m2\repository\com\amazonaws\aws-java-sdk-mediaconvert\1.11.274\aws-java-sdk-mediaconvert-1.11.274.jar;C:\Users\bruno\.m2\repository\com\amazonaws\aws-java-sdk-mediastore\1.11.274\aws-java-sdk-mediastore-1.11.274.jar;C:\Users\bruno\.m2\repository\com\amazonaws\aws-java-sdk-mediastoredata\1.11.274\aws-java-sdk-mediastoredata-1.11.274.jar;C:\Users\bruno\.m2\repository\com\amazonaws\aws-java-sdk-medialive\1.11.274\aws-java-sdk-medialive-1.11.274.jar;C:\Users\bruno\.m2\repository\com\amazonaws\aws-java-sdk-mediapackage\1.11.274\aws-java-sdk-mediapackage-1.11.274.jar;C:\Users\bruno\.m2\repository\com\amazonaws\aws-java-sdk-costexplorer\1.11.274\aws-java-sdk-costexplorer-1.11.274.jar;C:\Users\bruno\.m2\repository\com\amazonaws\aws-java-sdk-pricing\1.11.274\aws-java-sdk-pricing-1.11.274.jar;C:\Users\bruno\.m2\repository\com\amazonaws\aws-java-sdk-mobile\1.11.274\aws-java-sdk-mobile-1.11.274.jar;C:\Users\bruno\.m2\repository\com\amazonaws\aws-java-sdk-cloudhsmv2\1.11.274\aws-java-sdk-cloudhsmv2-1.11.274.jar;C:\Users\bruno\.m2\repository\com\amazonaws\aws-java-sdk-glue\1.11.274\aws-java-sdk-glue-1.11.274.jar;C:\Users\bruno\.m2\repository\com\amazonaws\aws-java-sdk-migrationhub\1.11.274\aws-java-sdk-migrationhub-1.11.274.jar;C:\Users\bruno\.m2\repository\com\amazonaws\aws-java-sdk-dax\1.11.274\aws-java-sdk-dax-1.11.274.jar;C:\Users\bruno\.m2\repository\com\amazonaws\aws-java-sdk-greengrass\1.11.274\aws-java-sdk-greengrass-1.11.274.jar;C:\Users\bruno\.m2\repository\com\amazonaws\aws-java-sdk-athena\1.11.274\aws-java-sdk-athena-1.11.274.jar;C:\Users\bruno\.m2\repository\com\amazonaws\aws-java-sdk-marketplaceentitlement\1.11.274\aws-java-sdk-marketplaceentitlement-1.11.274.jar;C:\Users\bruno\.m2\repository\com\amazonaws\aws-java-sdk-codestar\1.11.274\aws-java-sdk-codestar-1.11.274.jar;C:\Users\bruno\.m2\repository\com\amazonaws\aws-java-sdk-lexmodelbuilding\1.11.274\aws-java-sdk-lexmodelbuilding-1.11.274.jar;C:\Users\bruno\.m2\repository\com\amazonaws\aws-java-sdk-resourcegroupstaggingapi\1.11.274\aws-java-sdk-resourcegroupstaggingapi-1.11.274.jar;C:\Users\bruno\.m2\repository\com\amazonaws\aws-java-sdk-pinpoint\1.11.274\aws-java-sdk-pinpoint-1.11.274.jar;C:\Users\bruno\.m2\repository\com\amazonaws\aws-java-sdk-xray\1.11.274\aws-java-sdk-xray-1.11.274.jar;C:\Users\bruno\.m2\repository\com\amazonaws\aws-java-sdk-opsworkscm\1.11.274\aws-java-sdk-opsworkscm-1.11.274.jar;C:\Users\bruno\.m2\repository\com\amazonaws\aws-java-sdk-support\1.11.274\aws-java-sdk-support-1.11.274.jar;C:\Users\bruno\.m2\repository\com\amazonaws\aws-java-sdk-simpledb\1.11.274\aws-java-sdk-simpledb-1.11.274.jar;C:\Users\bruno\.m2\repository\com\amazonaws\aws-java-sdk-servicecatalog\1.11.274\aws-java-sdk-servicecatalog-1.11.274.jar;C:\Users\bruno\.m2\repository\com\amazonaws\aws-java-sdk-servermigration\1.11.274\aws-java-sdk-servermigration-1.11.274.jar;C:\Users\bruno\.m2\repository\com\amazonaws\aws-java-sdk-simpleworkflow\1.11.274\aws-java-sdk-simpleworkflow-1.11.274.jar;C:\Users\bruno\.m2\repository\com\amazonaws\aws-java-sdk-storagegateway\1.11.274\aws-java-sdk-storagegateway-1.11.274.jar;C:\Users\bruno\.m2\repository\com\amazonaws\aws-java-sdk-route53\1.11.274\aws-java-sdk-route53-1.11.274.jar;C:\Users\bruno\.m2\repository\com\amazonaws\aws-java-sdk-s3\1.11.274\aws-java-sdk-s3-1.11.274.jar;C:\Users\bruno\.m2\repository\com\amazonaws\aws-java-sdk-importexport\1.11.274\aws-java-sdk-importexport-1.11.274.jar;C:\Users\bruno\.m2\repository\com\amazonaws\aws-java-sdk-sts\1.11.274\aws-java-sdk-sts-1.11.274.jar;C:\Users\bruno\.m2\repository\com\amazonaws\aws-java-sdk-sqs\1.11.274\aws-java-sdk-sqs-1.11.274.jar;C:\Users\bruno\.m2\repository\com\amazonaws\aws-java-sdk-rds\1.11.274\aws-java-sdk-rds-1.11.274.jar;C:\Users\bruno\.m2\repository\com\amazonaws\aws-java-sdk-redshift\1.11.274\aws-java-sdk-redshift-1.11.274.jar;C:\Users\bruno\.m2\repository\com\amazonaws\aws-java-sdk-elasticbeanstalk\1.11.274\aws-java-sdk-elasticbeanstalk-1.11.274.jar;C:\Users\bruno\.m2\repository\com\amazonaws\aws-java-sdk-glacier\1.11.274\aws-java-sdk-glacier-1.11.274.jar;C:\Users\bruno\.m2\repository\com\amazonaws\aws-java-sdk-iam\1.11.274\aws-java-sdk-iam-1.11.274.jar;C:\Users\bruno\.m2\repository\com\amazonaws\aws-java-sdk-datapipeline\1.11.274\aws-java-sdk-datapipeline-1.11.274.jar;C:\Users\bruno\.m2\repository\com\amazonaws\aws-java-sdk-elasticloadbalancing\1.11.274\aws-java-sdk-elasticloadbalancing-1.11.274.jar;C:\Users\bruno\.m2\repository\com\amazonaws\aws-java-sdk-elasticloadbalancingv2\1.11.274\aws-java-sdk-elasticloadbalancingv2-1.11.274.jar;C:\Users\bruno\.m2\repository\com\amazonaws\aws-java-sdk-emr\1.11.274\aws-java-sdk-emr-1.11.274.jar;C:\Users\bruno\.m2\repository\com\amazonaws\aws-java-sdk-elasticache\1.11.274\aws-java-sdk-elasticache-1.11.274.jar;C:\Users\bruno\.m2\repository\com\amazonaws\aws-java-sdk-elastictranscoder\1.11.274\aws-java-sdk-elastictranscoder-1.11.274.jar;C:\Users\bruno\.m2\repository\com\amazonaws\aws-java-sdk-ec2\1.11.274\aws-java-sdk-ec2-1.11.274.jar;C:\Users\bruno\.m2\repository\com\amazonaws\aws-java-sdk-dynamodb\1.11.274\aws-java-sdk-dynamodb-1.11.274.jar;C:\Users\bruno\.m2\repository\com\amazonaws\aws-java-sdk-sns\1.11.274\aws-java-sdk-sns-1.11.274.jar;C:\Users\bruno\.m2\repository\com\amazonaws\aws-java-sdk-budgets\1.11.274\aws-java-sdk-budgets-1.11.274.jar;C:\Users\bruno\.m2\repository\com\amazonaws\aws-java-sdk-cloudtrail\1.11.274\aws-java-sdk-cloudtrail-1.11.274.jar;C:\Users\bruno\.m2\repository\com\amazonaws\aws-java-sdk-cloudwatch\1.11.274\aws-java-sdk-cloudwatch-1.11.274.jar;C:\Users\bruno\.m2\repository\com\amazonaws\aws-java-sdk-logs\1.11.274\aws-java-sdk-logs-1.11.274.jar;C:\Users\bruno\.m2\repository\com\amazonaws\aws-java-sdk-events\1.11.274\aws-java-sdk-events-1.11.274.jar;C:\Users\bruno\.m2\repository\com\amazonaws\aws-java-sdk-cognitoidentity\1.11.274\aws-java-sdk-cognitoidentity-1.11.274.jar;C:\Users\bruno\.m2\repository\com\amazonaws\aws-java-sdk-cognitosync\1.11.274\aws-java-sdk-cognitosync-1.11.274.jar;C:\Users\bruno\.m2\repository\com\amazonaws\aws-java-sdk-directconnect\1.11.274\aws-java-sdk-directconnect-1.11.274.jar;C:\Users\bruno\.m2\repository\com\amazonaws\aws-java-sdk-cloudformation\1.11.274\aws-java-sdk-cloudformation-1.11.274.jar;C:\Users\bruno\.m2\repository\com\amazonaws\aws-java-sdk-cloudfront\1.11.274\aws-java-sdk-cloudfront-1.11.274.jar;C:\Users\bruno\.m2\repository\com\amazonaws\aws-java-sdk-clouddirectory\1.11.274\aws-java-sdk-clouddirectory-1.11.274.jar;C:\Users\bruno\.m2\repository\com\amazonaws\aws-java-sdk-kinesis\1.11.274\aws-java-sdk-kinesis-1.11.274.jar;C:\Users\bruno\.m2\repository\com\amazonaws\aws-java-sdk-opsworks\1.11.274\aws-java-sdk-opsworks-1.11.274.jar;C:\Users\bruno\.m2\repository\com\amazonaws\aws-java-sdk-ses\1.11.274\aws-java-sdk-ses-1.11.274.jar;C:\Users\bruno\.m2\repository\com\amazonaws\aws-java-sdk-autoscaling\1.11.274\aws-java-sdk-autoscaling-1.11.274.jar;C:\Users\bruno\.m2\repository\com\amazonaws\aws-java-sdk-cloudsearch\1.11.274\aws-java-sdk-cloudsearch-1.11.274.jar;C:\Users\bruno\.m2\repository\com\amazonaws\aws-java-sdk-cloudwatchmetrics\1.11.274\aws-java-sdk-cloudwatchmetrics-1.11.274.jar;C:\Users\bruno\.m2\repository\com\amazonaws\aws-java-sdk-codedeploy\1.11.274\aws-java-sdk-codedeploy-1.11.274.jar;C:\Users\bruno\.m2\repository\com\amazonaws\aws-java-sdk-codepipeline\1.11.274\aws-java-sdk-codepipeline-1.11.274.jar;C:\Users\bruno\.m2\repository\com\amazonaws\aws-java-sdk-kms\1.11.274\aws-java-sdk-kms-1.11.274.jar;C:\Users\bruno\.m2\repository\com\amazonaws\aws-java-sdk-config\1.11.274\aws-java-sdk-config-1.11.274.jar;C:\Users\bruno\.m2\repository\com\amazonaws\aws-java-sdk-lambda\1.11.274\aws-java-sdk-lambda-1.11.274.jar;C:\Users\bruno\.m2\repository\com\amazonaws\aws-java-sdk-ecs\1.11.274\aws-java-sdk-ecs-1.11.274.jar;C:\Users\bruno\.m2\repository\com\amazonaws\aws-java-sdk-ecr\1.11.274\aws-java-sdk-ecr-1.11.274.jar;C:\Users\bruno\.m2\repository\com\amazonaws\aws-java-sdk-cloudhsm\1.11.274\aws-java-sdk-cloudhsm-1.11.274.jar;C:\Users\bruno\.m2\repository\com\amazonaws\aws-java-sdk-ssm\1.11.274\aws-java-sdk-ssm-1.11.274.jar;C:\Users\bruno\.m2\repository\com\amazonaws\aws-java-sdk-workspaces\1.11.274\aws-java-sdk-workspaces-1.11.274.jar;C:\Users\bruno\.m2\repository\com\amazonaws\aws-java-sdk-machinelearning\1.11.274\aws-java-sdk-machinelearning-1.11.274.jar;C:\Users\bruno\.m2\repository\com\amazonaws\aws-java-sdk-directory\1.11.274\aws-java-sdk-directory-1.11.274.jar;C:\Users\bruno\.m2\repository\com\amazonaws\aws-java-sdk-efs\1.11.274\aws-java-sdk-efs-1.11.274.jar;C:\Users\bruno\.m2\repository\com\amazonaws\aws-java-sdk-codecommit\1.11.274\aws-java-sdk-codecommit-1.11.274.jar;C:\Users\bruno\.m2\repository\com\amazonaws\aws-java-sdk-devicefarm\1.11.274\aws-java-sdk-devicefarm-1.11.274.jar;C:\Users\bruno\.m2\repository\com\amazonaws\aws-java-sdk-elasticsearch\1.11.274\aws-java-sdk-elasticsearch-1.11.274.jar;C:\Users\bruno\.m2\repository\com\amazonaws\aws-java-sdk-waf\1.11.274\aws-java-sdk-waf-1.11.274.jar;C:\Users\bruno\.m2\repository\com\amazonaws\aws-java-sdk-marketplacecommerceanalytics\1.11.274\aws-java-sdk-marketplacecommerceanalytics-1.11.274.jar;C:\Users\bruno\.m2\repository\com\amazonaws\aws-java-sdk-inspector\1.11.274\aws-java-sdk-inspector-1.11.274.jar;C:\Users\bruno\.m2\repository\com\amazonaws\aws-java-sdk-iot\1.11.274\aws-java-sdk-iot-1.11.274.jar;C:\Users\bruno\.m2\repository\com\amazonaws\aws-java-sdk-api-gateway\1.11.274\aws-java-sdk-api-gateway-1.11.274.jar;C:\Users\bruno\.m2\repository\com\amazonaws\aws-java-sdk-acm\1.11.274\aws-java-sdk-acm-1.11.274.jar;C:\Users\bruno\.m2\repository\com\amazonaws\aws-java-sdk-gamelift\1.11.274\aws-java-sdk-gamelift-1.11.274.jar;C:\Users\bruno\.m2\repository\com\amazonaws\aws-java-sdk-dms\1.11.274\aws-java-sdk-dms-1.11.274.jar;C:\Users\bruno\.m2\repository\com\amazonaws\aws-java-sdk-marketplacemeteringservice\1.11.274\aws-java-sdk-marketplacemeteringservice-1.11.274.jar;C:\Users\bruno\.m2\repository\com\amazonaws\aws-java-sdk-cognitoidp\1.11.274\aws-java-sdk-cognitoidp-1.11.274.jar;C:\Users\bruno\.m2\repository\com\amazonaws\aws-java-sdk-discovery\1.11.274\aws-java-sdk-discovery-1.11.274.jar;C:\Users\bruno\.m2\repository\com\amazonaws\aws-java-sdk-applicationautoscaling\1.11.274\aws-java-sdk-applicationautoscaling-1.11.274.jar;C:\Users\bruno\.m2\repository\com\amazonaws\aws-java-sdk-snowball\1.11.274\aws-java-sdk-snowball-1.11.274.jar;C:\Users\bruno\.m2\repository\com\amazonaws\aws-java-sdk-rekognition\1.11.274\aws-java-sdk-rekognition-1.11.274.jar;C:\Users\bruno\.m2\repository\com\amazonaws\aws-java-sdk-polly\1.11.274\aws-java-sdk-polly-1.11.274.jar;C:\Users\bruno\.m2\repository\com\amazonaws\aws-java-sdk-lightsail\1.11.274\aws-java-sdk-lightsail-1.11.274.jar;C:\Users\bruno\.m2\repository\com\amazonaws\aws-java-sdk-stepfunctions\1.11.274\aws-java-sdk-stepfunctions-1.11.274.jar;C:\Users\bruno\.m2\repository\com\amazonaws\aws-java-sdk-health\1.11.274\aws-java-sdk-health-1.11.274.jar;C:\Users\bruno\.m2\repository\com\amazonaws\aws-java-sdk-costandusagereport\1.11.274\aws-java-sdk-costandusagereport-1.11.274.jar;C:\Users\bruno\.m2\repository\com\amazonaws\aws-java-sdk-codebuild\1.11.274\aws-java-sdk-codebuild-1.11.274.jar;C:\Users\bruno\.m2\repository\com\amazonaws\aws-java-sdk-appstream\1.11.274\aws-java-sdk-appstream-1.11.274.jar;C:\Users\bruno\.m2\repository\com\amazonaws\aws-java-sdk-shield\1.11.274\aws-java-sdk-shield-1.11.274.jar;C:\Users\bruno\.m2\repository\com\amazonaws\aws-java-sdk-batch\1.11.274\aws-java-sdk-batch-1.11.274.jar;C:\Users\bruno\.m2\repository\com\amazonaws\aws-java-sdk-lex\1.11.274\aws-java-sdk-lex-1.11.274.jar;C:\Users\bruno\.m2\repository\com\amazonaws\aws-java-sdk-mechanicalturkrequester\1.11.274\aws-java-sdk-mechanicalturkrequester-1.11.274.jar;C:\Users\bruno\.m2\repository\com\amazonaws\aws-java-sdk-organizations\1.11.274\aws-java-sdk-organizations-1.11.274.jar;C:\Users\bruno\.m2\repository\com\amazonaws\aws-java-sdk-workdocs\1.11.274\aws-java-sdk-workdocs-1.11.274.jar;C:\Users\bruno\.m2\repository\com\amazonaws\aws-java-sdk-core\1.11.274\aws-java-sdk-core-1.11.274.jar;C:\Users\bruno\.m2\repository\org\apache\httpcomponents\httpclient\4.5.5\httpclient-4.5.5.jar;C:\Users\bruno\.m2\repository\org\apache\httpcomponents\httpcore\4.4.9\httpcore-4.4.9.jar;C:\Users\bruno\.m2\repository\software\amazon\ion\ion-java\1.0.2\ion-java-1.0.2.jar;C:\Users\bruno\.m2\repository\com\fasterxml\jackson\dataformat\jackson-dataformat-cbor\2.9.5\jackson-dataformat-cbor-2.9.5.jar;C:\Users\bruno\.m2\repository\com\amazonaws\aws-java-sdk-models\1.11.274\aws-java-sdk-models-1.11.274.jar;C:\Users\bruno\.m2\repository\com\amazonaws\aws-java-sdk-swf-libraries\1.11.22\aws-java-sdk-swf-libraries-1.11.22.jar;"/>
    <property name="java.vm.vendor" value="Oracle Corporation"/>
    <property name="sun.arch.data.model" value="64"/>
    <property name="user.variant" value=""/>
    <property name="java.vendor.url" value="http://java.oracle.com/"/>
    <property name="user.timezone" value=""/>
    <property name="java.vm.specification.version" value="1.8"/>
    <property name="os.name" value="Windows 10"/>
    <property name="user.country" value="BR"/>
    <property name="sun.java.launcher" value="SUN_STANDARD"/>
    <property name="sun.boot.library.path" value="C:\Program Files\Java\jdk1.8.0_192\jre\bin"/>
    <property name="sun.java.command" value="C:\Users\bruno\AppData\Local\Temp\surefire6335989987034263868\surefirebooter8620829725254095841.jar C:\Users\bruno\AppData\Local\Temp\surefire6335989987034263868 2019-08-16T22-45-25_537-jvmRun1 surefire815675004248773963tmp surefire_07941491638318286022tmp"/>
    <property name="surefire.test.class.path" value="C:\workspace\editalsniffer-api\target\test-classes;C:\workspace\editalsniffer-api\target\classes;C:\Users\bruno\.m2\repository\org\springframework\boot\spring-boot-starter-data-jpa\2.0.2.RELEASE\spring-boot-starter-data-jpa-2.0.2.RELEASE.jar;C:\Users\bruno\.m2\repository\org\springframework\boot\spring-boot-starter\2.0.2.RELEASE\spring-boot-starter-2.0.2.RELEASE.jar;C:\Users\bruno\.m2\repository\org\springframework\boot\spring-boot-starter-logging\2.0.2.RELEASE\spring-boot-starter-logging-2.0.2.RELEASE.jar;C:\Users\bruno\.m2\repository\ch\qos\logback\logback-classic\1.2.3\logback-classic-1.2.3.jar;C:\Users\bruno\.m2\repository\ch\qos\logback\logback-core\1.2.3\logback-core-1.2.3.jar;C:\Users\bruno\.m2\repository\org\apache\logging\log4j\log4j-to-slf4j\2.10.0\log4j-to-slf4j-2.10.0.jar;C:\Users\bruno\.m2\repository\org\apache\logging\log4j\log4j-api\2.10.0\log4j-api-2.10.0.jar;C:\Users\bruno\.m2\repository\org\slf4j\jul-to-slf4j\1.7.25\jul-to-slf4j-1.7.25.jar;C:\Users\bruno\.m2\repository\javax\annotation\javax.annotation-api\1.3.2\javax.annotation-api-1.3.2.jar;C:\Users\bruno\.m2\repository\org\yaml\snakeyaml\1.19\snakeyaml-1.19.jar;C:\Users\bruno\.m2\repository\org\springframework\boot\spring-boot-starter-aop\2.0.2.RELEASE\spring-boot-starter-aop-2.0.2.RELEASE.jar;C:\Users\bruno\.m2\repository\org\aspectj\aspectjweaver\1.8.13\aspectjweaver-1.8.13.jar;C:\Users\bruno\.m2\repository\org\springframework\boot\spring-boot-starter-jdbc\2.0.2.RELEASE\spring-boot-starter-jdbc-2.0.2.RELEASE.jar;C:\Users\bruno\.m2\repository\com\zaxxer\HikariCP\2.7.9\HikariCP-2.7.9.jar;C:\Users\bruno\.m2\repository\org\springframework\spring-jdbc\5.0.6.RELEASE\spring-jdbc-5.0.6.RELEASE.jar;C:\Users\bruno\.m2\repository\org\hibernate\hibernate-core\5.2.17.Final\hibernate-core-5.2.17.Final.jar;C:\Users\bruno\.m2\repository\org\hibernate\javax\persistence\hibernate-jpa-2.1-api\1.0.0.Final\hibernate-jpa-2.1-api-1.0.0.Final.jar;C:\Users\bruno\.m2\repository\org\javassist\javassist\3.22.0-GA\javassist-3.22.0-GA.jar;C:\Users\bruno\.m2\repository\antlr\antlr\2.7.7\antlr-2.7.7.jar;C:\Users\bruno\.m2\repository\org\jboss\jandex\2.0.3.Final\jandex-2.0.3.Final.jar;C:\Users\bruno\.m2\repository\com\fasterxml\classmate\1.3.4\classmate-1.3.4.jar;C:\Users\bruno\.m2\repository\dom4j\dom4j\1.6.1\dom4j-1.6.1.jar;C:\Users\bruno\.m2\repository\org\hibernate\common\hibernate-commons-annotations\5.0.1.Final\hibernate-commons-annotations-5.0.1.Final.jar;C:\Users\bruno\.m2\repository\javax\transaction\javax.transaction-api\1.2\javax.transaction-api-1.2.jar;C:\Users\bruno\.m2\repository\org\springframework\data\spring-data-jpa\2.0.7.RELEASE\spring-data-jpa-2.0.7.RELEASE.jar;C:\Users\bruno\.m2\repository\org\springframework\data\spring-data-commons\2.0.7.RELEASE\spring-data-commons-2.0.7.RELEASE.jar;C:\Users\bruno\.m2\repository\org\springframework\spring-orm\5.0.6.RELEASE\spring-orm-5.0.6.RELEASE.jar;C:\Users\bruno\.m2\repository\org\springframework\spring-tx\5.0.6.RELEASE\spring-tx-5.0.6.RELEASE.jar;C:\Users\bruno\.m2\repository\org\springframework\spring-aspects\5.0.6.RELEASE\spring-aspects-5.0.6.RELEASE.jar;C:\Users\bruno\.m2\repository\org\springframework\boot\spring-boot-starter-web\2.0.2.RELEASE\spring-boot-starter-web-2.0.2.RELEASE.jar;C:\Users\bruno\.m2\repository\org\springframework\boot\spring-boot-starter-json\2.0.2.RELEASE\spring-boot-starter-json-2.0.2.RELEASE.jar;C:\Users\bruno\.m2\repository\com\fasterxml\jackson\datatype\jackson-datatype-jdk8\2.9.5\jackson-datatype-jdk8-2.9.5.jar;C:\Users\bruno\.m2\repository\com\fasterxml\jackson\module\jackson-module-parameter-names\2.9.5\jackson-module-parameter-names-2.9.5.jar;C:\Users\bruno\.m2\repository\org\springframework\boot\spring-boot-starter-tomcat\2.0.2.RELEASE\spring-boot-starter-tomcat-2.0.2.RELEASE.jar;C:\Users\bruno\.m2\repository\org\apache\tomcat\embed\tomcat-embed-core\8.5.31\tomcat-embed-core-8.5.31.jar;C:\Users\bruno\.m2\repository\org\apache\tomcat\embed\tomcat-embed-el\8.5.31\tomcat-embed-el-8.5.31.jar;C:\Users\bruno\.m2\repository\org\apache\tomcat\embed\tomcat-embed-websocket\8.5.31\tomcat-embed-websocket-8.5.31.jar;C:\Users\bruno\.m2\repository\org\hibernate\validator\hibernate-validator\6.0.9.Final\hibernate-validator-6.0.9.Final.jar;C:\Users\bruno\.m2\repository\javax\validation\validation-api\2.0.1.Final\validation-api-2.0.1.Final.jar;C:\Users\bruno\.m2\repository\org\springframework\spring-web\5.0.6.RELEASE\spring-web-5.0.6.RELEASE.jar;C:\Users\bruno\.m2\repository\org\springframework\spring-webmvc\5.0.6.RELEASE\spring-webmvc-5.0.6.RELEASE.jar;C:\Users\bruno\.m2\repository\org\springframework\spring-expression\5.0.6.RELEASE\spring-expression-5.0.6.RELEASE.jar;C:\Users\bruno\.m2\repository\org\springframework\boot\spring-boot-starter-mail\2.0.2.RELEASE\spring-boot-starter-mail-2.0.2.RELEASE.jar;C:\Users\bruno\.m2\repository\org\springframework\spring-context\5.0.6.RELEASE\spring-context-5.0.6.RELEASE.jar;C:\Users\bruno\.m2\repository\org\springframework\spring-context-support\5.0.6.RELEASE\spring-context-support-5.0.6.RELEASE.jar;C:\Users\bruno\.m2\repository\com\sun\mail\javax.mail\1.6.1\javax.mail-1.6.1.jar;C:\Users\bruno\.m2\repository\javax\activation\activation\1.1\activation-1.1.jar;C:\Users\bruno\.m2\repository\org\springframework\boot\spring-boot-devtools\2.0.2.RELEASE\spring-boot-devtools-2.0.2.RELEASE.jar;C:\Users\bruno\.m2\repository\org\springframework\boot\spring-boot\2.0.2.RELEASE\spring-boot-2.0.2.RELEASE.jar;C:\Users\bruno\.m2\repository\org\springframework\boot\spring-boot-autoconfigure\2.0.2.RELEASE\spring-boot-autoconfigure-2.0.2.RELEASE.jar;C:\Users\bruno\.m2\repository\org\springframework\boot\spring-boot-starter-test\2.0.2.RELEASE\spring-boot-starter-test-2.0.2.RELEASE.jar;C:\Users\bruno\.m2\repository\org\springframework\boot\spring-boot-test\2.0.2.RELEASE\spring-boot-test-2.0.2.RELEASE.jar;C:\Users\bruno\.m2\repository\org\springframework\boot\spring-boot-test-autoconfigure\2.0.2.RELEASE\spring-boot-test-autoconfigure-2.0.2.RELEASE.jar;C:\Users\bruno\.m2\repository\com\jayway\jsonpath\json-path\2.4.0\json-path-2.4.0.jar;C:\Users\bruno\.m2\repository\net\minidev\json-smart\2.3\json-smart-2.3.jar;C:\Users\bruno\.m2\repository\net\minidev\accessors-smart\1.2\accessors-smart-1.2.jar;C:\Users\bruno\.m2\repository\org\ow2\asm\asm\5.0.4\asm-5.0.4.jar;C:\Users\bruno\.m2\repository\junit\junit\4.12\junit-4.12.jar;C:\Users\bruno\.m2\repository\org\assertj\assertj-core\3.9.1\assertj-core-3.9.1.jar;C:\Users\bruno\.m2\repository\org\mockito\mockito-core\2.15.0\mockito-core-2.15.0.jar;C:\Users\bruno\.m2\repository\net\bytebuddy\byte-buddy\1.7.11\byte-buddy-1.7.11.jar;C:\Users\bruno\.m2\repository\net\bytebuddy\byte-buddy-agent\1.7.11\byte-buddy-agent-1.7.11.jar;C:\Users\bruno\.m2\repository\org\objenesis\objenesis\2.6\objenesis-2.6.jar;C:\Users\bruno\.m2\repository\org\hamcrest\hamcrest-core\1.3\hamcrest-core-1.3.jar;C:\Users\bruno\.m2\repository\org\hamcrest\hamcrest-library\1.3\hamcrest-library-1.3.jar;C:\Users\bruno\.m2\repository\org\skyscreamer\jsonassert\1.5.0\jsonassert-1.5.0.jar;C:\Users\bruno\.m2\repository\com\vaadin\external\google\android-json\0.0.20131108.vaadin1\android-json-0.0.20131108.vaadin1.jar;C:\Users\bruno\.m2\repository\org\springframework\spring-core\5.0.6.RELEASE\spring-core-5.0.6.RELEASE.jar;C:\Users\bruno\.m2\repository\org\springframework\spring-jcl\5.0.6.RELEASE\spring-jcl-5.0.6.RELEASE.jar;C:\Users\bruno\.m2\repository\org\springframework\spring-test\5.0.6.RELEASE\spring-test-5.0.6.RELEASE.jar;C:\Users\bruno\.m2\repository\org\xmlunit\xmlunit-core\2.5.1\xmlunit-core-2.5.1.jar;C:\Users\bruno\.m2\repository\org\springframework\boot\spring-boot-starter-thymeleaf\2.0.2.RELEASE\spring-boot-starter-thymeleaf-2.0.2.RELEASE.jar;C:\Users\bruno\.m2\repository\org\thymeleaf\thymeleaf-spring5\3.0.9.RELEASE\thymeleaf-spring5-3.0.9.RELEASE.jar;C:\Users\bruno\.m2\repository\org\thymeleaf\extras\thymeleaf-extras-java8time\3.0.1.RELEASE\thymeleaf-extras-java8time-3.0.1.RELEASE.jar;C:\Users\bruno\.m2\repository\org\thymeleaf\thymeleaf\3.0.9.RELEASE\thymeleaf-3.0.9.RELEASE.jar;C:\Users\bruno\.m2\repository\ognl\ognl\3.1.12\ognl-3.1.12.jar;C:\Users\bruno\.m2\repository\org\attoparser\attoparser\2.0.4.RELEASE\attoparser-2.0.4.RELEASE.jar;C:\Users\bruno\.m2\repository\org\unbescape\unbescape\1.1.5.RELEASE\unbescape-1.1.5.RELEASE.jar;C:\Users\bruno\.m2\repository\org\slf4j\slf4j-api\1.7.25\slf4j-api-1.7.25.jar;C:\Users\bruno\.m2\repository\mysql\mysql-connector-java\5.1.46\mysql-connector-java-5.1.46.jar;C:\Users\bruno\.m2\repository\org\flywaydb\flyway-core\5.0.7\flyway-core-5.0.7.jar;C:\Users\bruno\.m2\repository\org\hibernate\hibernate-java8\5.2.17.Final\hibernate-java8-5.2.17.Final.jar;C:\Users\bruno\.m2\repository\org\jboss\logging\jboss-logging\3.3.2.Final\jboss-logging-3.3.2.Final.jar;C:\Users\bruno\.m2\repository\com\fasterxml\jackson\datatype\jackson-datatype-jsr310\2.9.5\jackson-datatype-jsr310-2.9.5.jar;C:\Users\bruno\.m2\repository\com\fasterxml\jackson\core\jackson-annotations\2.9.0\jackson-annotations-2.9.0.jar;C:\Users\bruno\.m2\repository\com\fasterxml\jackson\core\jackson-core\2.9.5\jackson-core-2.9.5.jar;C:\Users\bruno\.m2\repository\com\fasterxml\jackson\core\jackson-databind\2.9.5\jackson-databind-2.9.5.jar;C:\Users\bruno\.m2\repository\org\apache\commons\commons-lang3\3.4\commons-lang3-3.4.jar;C:\Users\bruno\.m2\repository\org\springframework\boot\spring-boot-starter-security\2.0.2.RELEASE\spring-boot-starter-security-2.0.2.RELEASE.jar;C:\Users\bruno\.m2\repository\org\springframework\spring-aop\5.0.6.RELEASE\spring-aop-5.0.6.RELEASE.jar;C:\Users\bruno\.m2\repository\org\springframework\security\spring-security-config\5.0.5.RELEASE\spring-security-config-5.0.5.RELEASE.jar;C:\Users\bruno\.m2\repository\org\springframework\security\spring-security-web\5.0.5.RELEASE\spring-security-web-5.0.5.RELEASE.jar;C:\Users\bruno\.m2\repository\org\springframework\security\oauth\spring-security-oauth2\2.2.1.RELEASE\spring-security-oauth2-2.2.1.RELEASE.jar;C:\Users\bruno\.m2\repository\org\springframework\spring-beans\5.0.6.RELEASE\spring-beans-5.0.6.RELEASE.jar;C:\Users\bruno\.m2\repository\org\springframework\security\spring-security-core\5.0.5.RELEASE\spring-security-core-5.0.5.RELEASE.jar;C:\Users\bruno\.m2\repository\commons-codec\commons-codec\1.11\commons-codec-1.11.jar;C:\Users\bruno\.m2\repository\org\codehaus\jackson\jackson-mapper-asl\1.9.13\jackson-mapper-asl-1.9.13.jar;C:\Users\bruno\.m2\repository\org\codehaus\jackson\jackson-core-asl\1.9.13\jackson-core-asl-1.9.13.jar;C:\Users\bruno\.m2\repository\org\springframework\security\spring-security-jwt\1.0.9.RELEASE\spring-security-jwt-1.0.9.RELEASE.jar;C:\Users\bruno\.m2\repository\org\bouncycastle\bcpkix-jdk15on\1.56\bcpkix-jdk15on-1.56.jar;C:\Users\bruno\.m2\repository\org\bouncycastle\bcprov-jdk15on\1.56\bcprov-jdk15on-1.56.jar;C:\Users\bruno\.m2\repository\org\springframework\boot\spring-boot-configuration-processor\2.0.2.RELEASE\spring-boot-configuration-processor-2.0.2.RELEASE.jar;C:\Users\bruno\.m2\repository\net\sf\jasperreports\jasperreports\6.5.1\jasperreports-6.5.1.jar;C:\Users\bruno\.m2\repository\commons-beanutils\commons-beanutils\1.9.3\commons-beanutils-1.9.3.jar;C:\Users\bruno\.m2\repository\commons-collections\commons-collections\3.2.2\commons-collections-3.2.2.jar;C:\Users\bruno\.m2\repository\commons-digester\commons-digester\2.1\commons-digester-2.1.jar;C:\Users\bruno\.m2\repository\commons-logging\commons-logging\1.1.1\commons-logging-1.1.1.jar;C:\Users\bruno\.m2\repository\com\lowagie\itext\2.1.7.js6\itext-2.1.7.js6.jar;C:\Users\bruno\.m2\repository\org\jfree\jcommon\1.0.23\jcommon-1.0.23.jar;C:\Users\bruno\.m2\repository\org\jfree\jfreechart\1.0.19\jfreechart-1.0.19.jar;C:\Users\bruno\.m2\repository\org\eclipse\jdt\core\compiler\ecj\4.4.2\ecj-4.4.2.jar;C:\Users\bruno\.m2\repository\org\codehaus\castor\castor-xml\1.3.3\castor-xml-1.3.3.jar;C:\Users\bruno\.m2\repository\org\codehaus\castor\castor-core\1.3.3\castor-core-1.3.3.jar;C:\Users\bruno\.m2\repository\commons-lang\commons-lang\2.6\commons-lang-2.6.jar;C:\Users\bruno\.m2\repository\javax\inject\javax.inject\1\javax.inject-1.jar;C:\Users\bruno\.m2\repository\stax\stax\1.2.0\stax-1.2.0.jar;C:\Users\bruno\.m2\repository\stax\stax-api\1.0.1\stax-api-1.0.1.jar;C:\Users\bruno\.m2\repository\javax\xml\stream\stax-api\1.0-2\stax-api-1.0-2.jar;C:\Users\bruno\.m2\repository\org\apache\lucene\lucene-core\4.5.1\lucene-core-4.5.1.jar;C:\Users\bruno\.m2\repository\org\apache\lucene\lucene-analyzers-common\4.5.1\lucene-analyzers-common-4.5.1.jar;C:\Users\bruno\.m2\repository\org\apache\lucene\lucene-queryparser\4.5.1\lucene-queryparser-4.5.1.jar;C:\Users\bruno\.m2\repository\org\apache\lucene\lucene-queries\4.5.1\lucene-queries-4.5.1.jar;C:\Users\bruno\.m2\repository\org\apache\lucene\lucene-sandbox\4.5.1\lucene-sandbox-4.5.1.jar;C:\Users\bruno\.m2\repository\jakarta-regexp\jakarta-regexp\1.4\jakarta-regexp-1.4.jar;C:\Users\bruno\.m2\repository\org\olap4j\olap4j\0.9.7.309-JS-3\olap4j-0.9.7.309-JS-3.jar;C:\Users\bruno\.m2\repository\com\google\zxing\core\3.2.1\core-3.2.1.jar;C:\Users\bruno\.m2\repository\com\ibm\icu\icu4j\57.1\icu4j-57.1.jar;C:\Users\bruno\.m2\repository\net\sf\jasperreports\jasperreports-functions\6.5.1\jasperreports-functions-6.5.1.jar;C:\Users\bruno\.m2\repository\joda-time\joda-time\2.9.9\joda-time-2.9.9.jar;C:\Users\bruno\.m2\repository\net\sf\jasperreports\jasperreports-fonts\6.0.0\jasperreports-fonts-6.0.0.jar;C:\Users\bruno\.m2\repository\com\amazonaws\aws-java-sdk\1.11.274\aws-java-sdk-1.11.274.jar;C:\Users\bruno\.m2\repository\com\amazonaws\aws-java-sdk-transcribe\1.11.274\aws-java-sdk-transcribe-1.11.274.jar;C:\Users\bruno\.m2\repository\com\amazonaws\jmespath-java\1.11.274\jmespath-java-1.11.274.jar;C:\Users\bruno\.m2\repository\com\amazonaws\aws-java-sdk-autoscalingplans\1.11.274\aws-java-sdk-autoscalingplans-1.11.274.jar;C:\Users\bruno\.m2\repository\com\amazonaws\aws-java-sdk-workmail\1.11.274\aws-java-sdk-workmail-1.11.274.jar;C:\Users\bruno\.m2\repository\com\amazonaws\aws-java-sdk-servicediscovery\1.11.274\aws-java-sdk-servicediscovery-1.11.274.jar;C:\Users\bruno\.m2\repository\com\amazonaws\aws-java-sdk-cloud9\1.11.274\aws-java-sdk-cloud9-1.11.274.jar;C:\Users\bruno\.m2\repository\com\amazonaws\aws-java-sdk-serverlessapplicationrepository\1.11.274\aws-java-sdk-serverlessapplicationrepository-1.11.274.jar;C:\Users\bruno\.m2\repository\com\amazonaws\aws-java-sdk-alexaforbusiness\1.11.274\aws-java-sdk-alexaforbusiness-1.11.274.jar;C:\Users\bruno\.m2\repository\com\amazonaws\aws-java-sdk-resourcegroups\1.11.274\aws-java-sdk-resourcegroups-1.11.274.jar;C:\Users\bruno\.m2\repository\com\amazonaws\aws-java-sdk-comprehend\1.11.274\aws-java-sdk-comprehend-1.11.274.jar;C:\Users\bruno\.m2\repository\com\amazonaws\aws-java-sdk-translate\1.11.274\aws-java-sdk-translate-1.11.274.jar;C:\Users\bruno\.m2\repository\com\amazonaws\aws-java-sdk-sagemaker\1.11.274\aws-java-sdk-sagemaker-1.11.274.jar;C:\Users\bruno\.m2\repository\com\amazonaws\aws-java-sdk-iotjobsdataplane\1.11.274\aws-java-sdk-iotjobsdataplane-1.11.274.jar;C:\Users\bruno\.m2\repository\com\amazonaws\aws-java-sdk-sagemakerruntime\1.11.274\aws-java-sdk-sagemakerruntime-1.11.274.jar;C:\Users\bruno\.m2\repository\com\amazonaws\aws-java-sdk-kinesisvideo\1.11.274\aws-java-sdk-kinesisvideo-1.11.274.jar;C:\Users\bruno\.m2\repository\io\netty\netty-codec-http\4.1.24.Final\netty-codec-http-4.1.24.Final.jar;C:\Users\bruno\.m2\repository\io\netty\netty-codec\4.1.24.Final\netty-codec-4.1.24.Final.jar;C:\Users\bruno\.m2\repository\io\netty\netty-handler\4.1.24.Final\netty-handler-4.1.24.Final.jar;C:\Users\bruno\.m2\repository\io\netty\netty-buffer\4.1.24.Final\netty-buffer-4.1.24.Final.jar;C:\Users\bruno\.m2\repository\io\netty\netty-common\4.1.24.Final\netty-common-4.1.24.Final.jar;C:\Users\bruno\.m2\repository\io\netty\netty-transport\4.1.24.Final\netty-transport-4.1.24.Final.jar;C:\Users\bruno\.m2\repository\io\netty\netty-resolver\4.1.24.Final\netty-resolver-4.1.24.Final.jar;C:\Users\bruno\.m2\repository\com\amazonaws\aws-java-sdk-appsync\1.11.274\aws-java-sdk-appsync-1.11.274.jar;C:\Users\bruno\.m2\repository\com\amazonaws\aws-java-sdk-guardduty\1.11.274\aws-java-sdk-guardduty-1.11.274.jar;C:\Users\bruno\.m2\repository\com\amazonaws\aws-java-sdk-mq\1.11.274\aws-java-sdk-mq-1.11.274.jar;C:\Users\bruno\.m2\repository\com\amazonaws\aws-java-sdk-mediaconvert\1.11.274\aws-java-sdk-mediaconvert-1.11.274.jar;C:\Users\bruno\.m2\repository\com\amazonaws\aws-java-sdk-mediastore\1.11.274\aws-java-sdk-mediastore-1.11.274.jar;C:\Users\bruno\.m2\repository\com\amazonaws\aws-java-sdk-mediastoredata\1.11.274\aws-java-sdk-mediastoredata-1.11.274.jar;C:\Users\bruno\.m2\repository\com\amazonaws\aws-java-sdk-medialive\1.11.274\aws-java-sdk-medialive-1.11.274.jar;C:\Users\bruno\.m2\repository\com\amazonaws\aws-java-sdk-mediapackage\1.11.274\aws-java-sdk-mediapackage-1.11.274.jar;C:\Users\bruno\.m2\repository\com\amazonaws\aws-java-sdk-costexplorer\1.11.274\aws-java-sdk-costexplorer-1.11.274.jar;C:\Users\bruno\.m2\repository\com\amazonaws\aws-java-sdk-pricing\1.11.274\aws-java-sdk-pricing-1.11.274.jar;C:\Users\bruno\.m2\repository\com\amazonaws\aws-java-sdk-mobile\1.11.274\aws-java-sdk-mobile-1.11.274.jar;C:\Users\bruno\.m2\repository\com\amazonaws\aws-java-sdk-cloudhsmv2\1.11.274\aws-java-sdk-cloudhsmv2-1.11.274.jar;C:\Users\bruno\.m2\repository\com\amazonaws\aws-java-sdk-glue\1.11.274\aws-java-sdk-glue-1.11.274.jar;C:\Users\bruno\.m2\repository\com\amazonaws\aws-java-sdk-migrationhub\1.11.274\aws-java-sdk-migrationhub-1.11.274.jar;C:\Users\bruno\.m2\repository\com\amazonaws\aws-java-sdk-dax\1.11.274\aws-java-sdk-dax-1.11.274.jar;C:\Users\bruno\.m2\repository\com\amazonaws\aws-java-sdk-greengrass\1.11.274\aws-java-sdk-greengrass-1.11.274.jar;C:\Users\bruno\.m2\repository\com\amazonaws\aws-java-sdk-athena\1.11.274\aws-java-sdk-athena-1.11.274.jar;C:\Users\bruno\.m2\repository\com\amazonaws\aws-java-sdk-marketplaceentitlement\1.11.274\aws-java-sdk-marketplaceentitlement-1.11.274.jar;C:\Users\bruno\.m2\repository\com\amazonaws\aws-java-sdk-codestar\1.11.274\aws-java-sdk-codestar-1.11.274.jar;C:\Users\bruno\.m2\repository\com\amazonaws\aws-java-sdk-lexmodelbuilding\1.11.274\aws-java-sdk-lexmodelbuilding-1.11.274.jar;C:\Users\bruno\.m2\repository\com\amazonaws\aws-java-sdk-resourcegroupstaggingapi\1.11.274\aws-java-sdk-resourcegroupstaggingapi-1.11.274.jar;C:\Users\bruno\.m2\repository\com\amazonaws\aws-java-sdk-pinpoint\1.11.274\aws-java-sdk-pinpoint-1.11.274.jar;C:\Users\bruno\.m2\repository\com\amazonaws\aws-java-sdk-xray\1.11.274\aws-java-sdk-xray-1.11.274.jar;C:\Users\bruno\.m2\repository\com\amazonaws\aws-java-sdk-opsworkscm\1.11.274\aws-java-sdk-opsworkscm-1.11.274.jar;C:\Users\bruno\.m2\repository\com\amazonaws\aws-java-sdk-support\1.11.274\aws-java-sdk-support-1.11.274.jar;C:\Users\bruno\.m2\repository\com\amazonaws\aws-java-sdk-simpledb\1.11.274\aws-java-sdk-simpledb-1.11.274.jar;C:\Users\bruno\.m2\repository\com\amazonaws\aws-java-sdk-servicecatalog\1.11.274\aws-java-sdk-servicecatalog-1.11.274.jar;C:\Users\bruno\.m2\repository\com\amazonaws\aws-java-sdk-servermigration\1.11.274\aws-java-sdk-servermigration-1.11.274.jar;C:\Users\bruno\.m2\repository\com\amazonaws\aws-java-sdk-simpleworkflow\1.11.274\aws-java-sdk-simpleworkflow-1.11.274.jar;C:\Users\bruno\.m2\repository\com\amazonaws\aws-java-sdk-storagegateway\1.11.274\aws-java-sdk-storagegateway-1.11.274.jar;C:\Users\bruno\.m2\repository\com\amazonaws\aws-java-sdk-route53\1.11.274\aws-java-sdk-route53-1.11.274.jar;C:\Users\bruno\.m2\repository\com\amazonaws\aws-java-sdk-s3\1.11.274\aws-java-sdk-s3-1.11.274.jar;C:\Users\bruno\.m2\repository\com\amazonaws\aws-java-sdk-importexport\1.11.274\aws-java-sdk-importexport-1.11.274.jar;C:\Users\bruno\.m2\repository\com\amazonaws\aws-java-sdk-sts\1.11.274\aws-java-sdk-sts-1.11.274.jar;C:\Users\bruno\.m2\repository\com\amazonaws\aws-java-sdk-sqs\1.11.274\aws-java-sdk-sqs-1.11.274.jar;C:\Users\bruno\.m2\repository\com\amazonaws\aws-java-sdk-rds\1.11.274\aws-java-sdk-rds-1.11.274.jar;C:\Users\bruno\.m2\repository\com\amazonaws\aws-java-sdk-redshift\1.11.274\aws-java-sdk-redshift-1.11.274.jar;C:\Users\bruno\.m2\repository\com\amazonaws\aws-java-sdk-elasticbeanstalk\1.11.274\aws-java-sdk-elasticbeanstalk-1.11.274.jar;C:\Users\bruno\.m2\repository\com\amazonaws\aws-java-sdk-glacier\1.11.274\aws-java-sdk-glacier-1.11.274.jar;C:\Users\bruno\.m2\repository\com\amazonaws\aws-java-sdk-iam\1.11.274\aws-java-sdk-iam-1.11.274.jar;C:\Users\bruno\.m2\repository\com\amazonaws\aws-java-sdk-datapipeline\1.11.274\aws-java-sdk-datapipeline-1.11.274.jar;C:\Users\bruno\.m2\repository\com\amazonaws\aws-java-sdk-elasticloadbalancing\1.11.274\aws-java-sdk-elasticloadbalancing-1.11.274.jar;C:\Users\bruno\.m2\repository\com\amazonaws\aws-java-sdk-elasticloadbalancingv2\1.11.274\aws-java-sdk-elasticloadbalancingv2-1.11.274.jar;C:\Users\bruno\.m2\repository\com\amazonaws\aws-java-sdk-emr\1.11.274\aws-java-sdk-emr-1.11.274.jar;C:\Users\bruno\.m2\repository\com\amazonaws\aws-java-sdk-elasticache\1.11.274\aws-java-sdk-elasticache-1.11.274.jar;C:\Users\bruno\.m2\repository\com\amazonaws\aws-java-sdk-elastictranscoder\1.11.274\aws-java-sdk-elastictranscoder-1.11.274.jar;C:\Users\bruno\.m2\repository\com\amazonaws\aws-java-sdk-ec2\1.11.274\aws-java-sdk-ec2-1.11.274.jar;C:\Users\bruno\.m2\repository\com\amazonaws\aws-java-sdk-dynamodb\1.11.274\aws-java-sdk-dynamodb-1.11.274.jar;C:\Users\bruno\.m2\repository\com\amazonaws\aws-java-sdk-sns\1.11.274\aws-java-sdk-sns-1.11.274.jar;C:\Users\bruno\.m2\repository\com\amazonaws\aws-java-sdk-budgets\1.11.274\aws-java-sdk-budgets-1.11.274.jar;C:\Users\bruno\.m2\repository\com\amazonaws\aws-java-sdk-cloudtrail\1.11.274\aws-java-sdk-cloudtrail-1.11.274.jar;C:\Users\bruno\.m2\repository\com\amazonaws\aws-java-sdk-cloudwatch\1.11.274\aws-java-sdk-cloudwatch-1.11.274.jar;C:\Users\bruno\.m2\repository\com\amazonaws\aws-java-sdk-logs\1.11.274\aws-java-sdk-logs-1.11.274.jar;C:\Users\bruno\.m2\repository\com\amazonaws\aws-java-sdk-events\1.11.274\aws-java-sdk-events-1.11.274.jar;C:\Users\bruno\.m2\repository\com\amazonaws\aws-java-sdk-cognitoidentity\1.11.274\aws-java-sdk-cognitoidentity-1.11.274.jar;C:\Users\bruno\.m2\repository\com\amazonaws\aws-java-sdk-cognitosync\1.11.274\aws-java-sdk-cognitosync-1.11.274.jar;C:\Users\bruno\.m2\repository\com\amazonaws\aws-java-sdk-directconnect\1.11.274\aws-java-sdk-directconnect-1.11.274.jar;C:\Users\bruno\.m2\repository\com\amazonaws\aws-java-sdk-cloudformation\1.11.274\aws-java-sdk-cloudformation-1.11.274.jar;C:\Users\bruno\.m2\repository\com\amazonaws\aws-java-sdk-cloudfront\1.11.274\aws-java-sdk-cloudfront-1.11.274.jar;C:\Users\bruno\.m2\repository\com\amazonaws\aws-java-sdk-clouddirectory\1.11.274\aws-java-sdk-clouddirectory-1.11.274.jar;C:\Users\bruno\.m2\repository\com\amazonaws\aws-java-sdk-kinesis\1.11.274\aws-java-sdk-kinesis-1.11.274.jar;C:\Users\bruno\.m2\repository\com\amazonaws\aws-java-sdk-opsworks\1.11.274\aws-java-sdk-opsworks-1.11.274.jar;C:\Users\bruno\.m2\repository\com\amazonaws\aws-java-sdk-ses\1.11.274\aws-java-sdk-ses-1.11.274.jar;C:\Users\bruno\.m2\repository\com\amazonaws\aws-java-sdk-autoscaling\1.11.274\aws-java-sdk-autoscaling-1.11.274.jar;C:\Users\bruno\.m2\repository\com\amazonaws\aws-java-sdk-cloudsearch\1.11.274\aws-java-sdk-cloudsearch-1.11.274.jar;C:\Users\bruno\.m2\repository\com\amazonaws\aws-java-sdk-cloudwatchmetrics\1.11.274\aws-java-sdk-cloudwatchmetrics-1.11.274.jar;C:\Users\bruno\.m2\repository\com\amazonaws\aws-java-sdk-codedeploy\1.11.274\aws-java-sdk-codedeploy-1.11.274.jar;C:\Users\bruno\.m2\repository\com\amazonaws\aws-java-sdk-codepipeline\1.11.274\aws-java-sdk-codepipeline-1.11.274.jar;C:\Users\bruno\.m2\repository\com\amazonaws\aws-java-sdk-kms\1.11.274\aws-java-sdk-kms-1.11.274.jar;C:\Users\bruno\.m2\repository\com\amazonaws\aws-java-sdk-config\1.11.274\aws-java-sdk-config-1.11.274.jar;C:\Users\bruno\.m2\repository\com\amazonaws\aws-java-sdk-lambda\1.11.274\aws-java-sdk-lambda-1.11.274.jar;C:\Users\bruno\.m2\repository\com\amazonaws\aws-java-sdk-ecs\1.11.274\aws-java-sdk-ecs-1.11.274.jar;C:\Users\bruno\.m2\repository\com\amazonaws\aws-java-sdk-ecr\1.11.274\aws-java-sdk-ecr-1.11.274.jar;C:\Users\bruno\.m2\repository\com\amazonaws\aws-java-sdk-cloudhsm\1.11.274\aws-java-sdk-cloudhsm-1.11.274.jar;C:\Users\bruno\.m2\repository\com\amazonaws\aws-java-sdk-ssm\1.11.274\aws-java-sdk-ssm-1.11.274.jar;C:\Users\bruno\.m2\repository\com\amazonaws\aws-java-sdk-workspaces\1.11.274\aws-java-sdk-workspaces-1.11.274.jar;C:\Users\bruno\.m2\repository\com\amazonaws\aws-java-sdk-machinelearning\1.11.274\aws-java-sdk-machinelearning-1.11.274.jar;C:\Users\bruno\.m2\repository\com\amazonaws\aws-java-sdk-directory\1.11.274\aws-java-sdk-directory-1.11.274.jar;C:\Users\bruno\.m2\repository\com\amazonaws\aws-java-sdk-efs\1.11.274\aws-java-sdk-efs-1.11.274.jar;C:\Users\bruno\.m2\repository\com\amazonaws\aws-java-sdk-codecommit\1.11.274\aws-java-sdk-codecommit-1.11.274.jar;C:\Users\bruno\.m2\repository\com\amazonaws\aws-java-sdk-devicefarm\1.11.274\aws-java-sdk-devicefarm-1.11.274.jar;C:\Users\bruno\.m2\repository\com\amazonaws\aws-java-sdk-elasticsearch\1.11.274\aws-java-sdk-elasticsearch-1.11.274.jar;C:\Users\bruno\.m2\repository\com\amazonaws\aws-java-sdk-waf\1.11.274\aws-java-sdk-waf-1.11.274.jar;C:\Users\bruno\.m2\repository\com\amazonaws\aws-java-sdk-marketplacecommerceanalytics\1.11.274\aws-java-sdk-marketplacecommerceanalytics-1.11.274.jar;C:\Users\bruno\.m2\repository\com\amazonaws\aws-java-sdk-inspector\1.11.274\aws-java-sdk-inspector-1.11.274.jar;C:\Users\bruno\.m2\repository\com\amazonaws\aws-java-sdk-iot\1.11.274\aws-java-sdk-iot-1.11.274.jar;C:\Users\bruno\.m2\repository\com\amazonaws\aws-java-sdk-api-gateway\1.11.274\aws-java-sdk-api-gateway-1.11.274.jar;C:\Users\bruno\.m2\repository\com\amazonaws\aws-java-sdk-acm\1.11.274\aws-java-sdk-acm-1.11.274.jar;C:\Users\bruno\.m2\repository\com\amazonaws\aws-java-sdk-gamelift\1.11.274\aws-java-sdk-gamelift-1.11.274.jar;C:\Users\bruno\.m2\repository\com\amazonaws\aws-java-sdk-dms\1.11.274\aws-java-sdk-dms-1.11.274.jar;C:\Users\bruno\.m2\repository\com\amazonaws\aws-java-sdk-marketplacemeteringservice\1.11.274\aws-java-sdk-marketplacemeteringservice-1.11.274.jar;C:\Users\bruno\.m2\repository\com\amazonaws\aws-java-sdk-cognitoidp\1.11.274\aws-java-sdk-cognitoidp-1.11.274.jar;C:\Users\bruno\.m2\repository\com\amazonaws\aws-java-sdk-discovery\1.11.274\aws-java-sdk-discovery-1.11.274.jar;C:\Users\bruno\.m2\repository\com\amazonaws\aws-java-sdk-applicationautoscaling\1.11.274\aws-java-sdk-applicationautoscaling-1.11.274.jar;C:\Users\bruno\.m2\repository\com\amazonaws\aws-java-sdk-snowball\1.11.274\aws-java-sdk-snowball-1.11.274.jar;C:\Users\bruno\.m2\repository\com\amazonaws\aws-java-sdk-rekognition\1.11.274\aws-java-sdk-rekognition-1.11.274.jar;C:\Users\bruno\.m2\repository\com\amazonaws\aws-java-sdk-polly\1.11.274\aws-java-sdk-polly-1.11.274.jar;C:\Users\bruno\.m2\repository\com\amazonaws\aws-java-sdk-lightsail\1.11.274\aws-java-sdk-lightsail-1.11.274.jar;C:\Users\bruno\.m2\repository\com\amazonaws\aws-java-sdk-stepfunctions\1.11.274\aws-java-sdk-stepfunctions-1.11.274.jar;C:\Users\bruno\.m2\repository\com\amazonaws\aws-java-sdk-health\1.11.274\aws-java-sdk-health-1.11.274.jar;C:\Users\bruno\.m2\repository\com\amazonaws\aws-java-sdk-costandusagereport\1.11.274\aws-java-sdk-costandusagereport-1.11.274.jar;C:\Users\bruno\.m2\repository\com\amazonaws\aws-java-sdk-codebuild\1.11.274\aws-java-sdk-codebuild-1.11.274.jar;C:\Users\bruno\.m2\repository\com\amazonaws\aws-java-sdk-appstream\1.11.274\aws-java-sdk-appstream-1.11.274.jar;C:\Users\bruno\.m2\repository\com\amazonaws\aws-java-sdk-shield\1.11.274\aws-java-sdk-shield-1.11.274.jar;C:\Users\bruno\.m2\repository\com\amazonaws\aws-java-sdk-batch\1.11.274\aws-java-sdk-batch-1.11.274.jar;C:\Users\bruno\.m2\repository\com\amazonaws\aws-java-sdk-lex\1.11.274\aws-java-sdk-lex-1.11.274.jar;C:\Users\bruno\.m2\repository\com\amazonaws\aws-java-sdk-mechanicalturkrequester\1.11.274\aws-java-sdk-mechanicalturkrequester-1.11.274.jar;C:\Users\bruno\.m2\repository\com\amazonaws\aws-java-sdk-organizations\1.11.274\aws-java-sdk-organizations-1.11.274.jar;C:\Users\bruno\.m2\repository\com\amazonaws\aws-java-sdk-workdocs\1.11.274\aws-java-sdk-workdocs-1.11.274.jar;C:\Users\bruno\.m2\repository\com\amazonaws\aws-java-sdk-core\1.11.274\aws-java-sdk-core-1.11.274.jar;C:\Users\bruno\.m2\repository\org\apache\httpcomponents\httpclient\4.5.5\httpclient-4.5.5.jar;C:\Users\bruno\.m2\repository\org\apache\httpcomponents\httpcore\4.4.9\httpcore-4.4.9.jar;C:\Users\bruno\.m2\repository\software\amazon\ion\ion-java\1.0.2\ion-java-1.0.2.jar;C:\Users\bruno\.m2\repository\com\fasterxml\jackson\dataformat\jackson-dataformat-cbor\2.9.5\jackson-dataformat-cbor-2.9.5.jar;C:\Users\bruno\.m2\repository\com\amazonaws\aws-java-sdk-models\1.11.274\aws-java-sdk-models-1.11.274.jar;C:\Users\bruno\.m2\repository\com\amazonaws\aws-java-sdk-swf-libraries\1.11.22\aws-java-sdk-swf-libraries-1.11.22.jar;"/>
    <property name="sun.cpu.endian" value="little"/>
    <property name="user.home" value="C:\Users\bruno"/>
    <property name="user.language" value="pt"/>
    <property name="java.specification.vendor" value="Oracle Corporation"/>
    <property name="java.home" value="C:\Program Files\Java\jdk1.8.0_192\jre"/>
    <property name="basedir" value="C:\workspace\editalsniffer-api"/>
    <property name="file.separator" value="\"/>
    <property name="line.separator" value="&#10;"/>
    <property name="java.vm.specification.vendor" value="Oracle Corporation"/>
    <property name="java.specification.name" value="Java Platform API Specification"/>
    <property name="java.awt.graphicsenv" value="sun.awt.Win32GraphicsEnvironment"/>
    <property name="surefire.real.class.path" value="C:\Users\bruno\AppData\Local\Temp\surefire6335989987034263868\surefirebooter8620829725254095841.jar"/>
    <property name="sun.boot.class.path" value="C:\Program Files\Java\jdk1.8.0_192\jre\lib\resources.jar;C:\Program Files\Java\jdk1.8.0_192\jre\lib\rt.jar;C:\Program Files\Java\jdk1.8.0_192\jre\lib\sunrsasign.jar;C:\Program Files\Java\jdk1.8.0_192\jre\lib\jsse.jar;C:\Program Files\Java\jdk1.8.0_192\jre\lib\jce.jar;C:\Program Files\Java\jdk1.8.0_192\jre\lib\charsets.jar;C:\Program Files\Java\jdk1.8.0_192\jre\lib\jfr.jar;C:\Program Files\Java\jdk1.8.0_192\jre\classes"/>
    <property name="user.script" value=""/>
    <property name="sun.management.compiler" value="HotSpot 64-Bit Tiered Compilers"/>
    <property name="java.runtime.version" value="1.8.0_192-b12"/>
    <property name="user.name" value="bruno"/>
    <property name="path.separator" value=";"/>
    <property name="os.version" value="10.0"/>
    <property name="java.endorsed.dirs" value="C:\Program Files\Java\jdk1.8.0_192\jre\lib\endorsed"/>
    <property name="java.runtime.name" value="Java(TM) SE Runtime Environment"/>
    <property name="file.encoding" value="Cp1252"/>
    <property name="java.vm.name" value="Java HotSpot(TM) 64-Bit Server VM"/>
    <property name="localRepository" value="C:\Users\bruno\.m2\repository"/>
    <property name="java.vendor.url.bug" value="http://bugreport.sun.com/bugreport/"/>
    <property name="java.io.tmpdir" value="C:\Users\bruno\AppData\Local\Temp\"/>
    <property name="java.version" value="1.8.0_192"/>
    <property name="user.dir" value="C:\workspace\editalsniffer-api"/>
    <property name="os.arch" value="amd64"/>
    <property name="java.vm.specification.name" value="Java Virtual Machine Specification"/>
    <property name="java.awt.printerjob" value="sun.awt.windows.WPrinterJob"/>
    <property name="sun.os.patch.level" value=""/>
    <property name="java.library.path" value="C:\Program Files\Java\jdk1.8.0_192\jre\bin;C:\Windows\Sun\Java\bin;C:\Windows\system32;C:\Windows;C:/Program Files/Java/jdk1.8.0_192/bin/../jre/bin/server;C:/Program Files/Java/jdk1.8.0_192/bin/../jre/bin;C:/Program Files/Java/jdk1.8.0_192/bin/../jre/lib/amd64;C:\Windows\system32;C:\Windows;C:\Windows\System32\Wbem;C:\Windows\System32\WindowsPowerShell\v1.0\;C:\Windows\System32\OpenSSH\;C:\Program Files (x86)\NVIDIA Corporation\PhysX\Common;C:\Program Files\NVIDIA Corporation\NVIDIA NvDLISR;C:\Program Files\Git\cmd;C:\Program Files\Java\jdk1.8.0_192\bin;C:\Program Files\MySQL\MySQL Utilities 1.6\;C:\Program Files\Common Files\Autodesk Shared\;C:\Program Files\nodejs\;C:\Leiningen;C:\Program Files\PuTTY\;C:\Users\bruno\AppData\Local\Microsoft\WindowsApps;;C:\Users\bruno\AppData\Local\Programs\Microsoft VS Code\bin;C:\Program Files\JetBrains\IntelliJ IDEA Community Edition 2019.1.3\bin;;C:\Users\bruno\AppData\Roaming\npm;C:\Program Files (x86)\Sophos\Sophos SSL VPN Client\bin;C:\Program Files\sts;;."/>
    <property name="java.vm.info" value="mixed mode"/>
    <property name="java.vendor" value="Oracle Corporation"/>
    <property name="java.vm.version" value="25.192-b12"/>
    <property name="java.ext.dirs" value="C:\Program Files\Java\jdk1.8.0_192\jre\lib\ext;C:\Windows\Sun\Java\lib\ext"/>
    <property name="sun.io.unicode.encoding" value="UnicodeLittle"/>
    <property name="java.class.version" value="52.0"/>
  </properties>
  <testcase name="contextLoads" classname="com.example.editalsniffer.api.EditalsnifferApiApplicationTests" time="0.368"/>
</testsuite>