C:\workspace\editalsniffer-api\src\main\java\com\example\editalsniffer\api\model\Edital.java
C:\workspace\editalsniffer-api\src\main\java\com\example\editalsniffer\api\service\exception\PessoaInexistenteOuInativaException.java
C:\workspace\editalsniffer-api\src\main\java\com\example\editalsniffer\api\model\Cidade_.java
C:\workspace\editalsniffer-api\src\main\java\com\example\editalsniffer\api\model\Contato.java
C:\workspace\editalsniffer-api\src\main\java\com\example\editalsniffer\api\repository\item\ItemRepositoryQuery.java
C:\workspace\editalsniffer-api\src\main\java\com\example\editalsniffer\api\model\Usuario_.java
C:\workspace\editalsniffer-api\src\main\java\com\example\editalsniffer\api\service\CategoriaService.java
C:\workspace\editalsniffer-api\src\main\java\com\example\editalsniffer\api\repository\edital\EditalRepositoryImpl.java
C:\workspace\editalsniffer-api\src\main\java\com\example\editalsniffer\api\repository\CidadeRepository.java
C:\workspace\editalsniffer-api\src\main\java\com\example\editalsniffer\api\resource\LancamentoResource.java
C:\workspace\editalsniffer-api\src\main\java\com\example\editalsniffer\api\model\Categoria.java
C:\workspace\editalsniffer-api\src\main\java\com\example\editalsniffer\api\repository\lancamento\LancamentoRepositoryImpl.java
C:\workspace\editalsniffer-api\src\main\java\com\example\editalsniffer\api\mail\Mailer.java
C:\workspace\editalsniffer-api\src\main\java\com\example\editalsniffer\api\model\Permissao.java
C:\workspace\editalsniffer-api\src\main\java\com\example\editalsniffer\api\resource\EstadoResource.java
C:\workspace\editalsniffer-api\src\main\java\com\example\editalsniffer\api\repository\LancamentoRepository.java
C:\workspace\editalsniffer-api\src\main\java\com\example\editalsniffer\api\repository\filter\EditalFilter.java
C:\workspace\editalsniffer-api\src\main\java\com\example\editalsniffer\api\model\Contato_.java
C:\workspace\editalsniffer-api\src\main\java\com\example\editalsniffer\api\repository\categoria\CategoriaRepositoryQuery.java
C:\workspace\editalsniffer-api\src\main\java\com\example\editalsniffer\api\resource\TokenResource.java
C:\workspace\editalsniffer-api\src\main\java\com\example\editalsniffer\api\model\Endereco_.java
C:\workspace\editalsniffer-api\src\main\java\com\example\editalsniffer\api\config\MailConfig.java
C:\workspace\editalsniffer-api\src\main\java\com\example\editalsniffer\api\model\Usuario.java
C:\workspace\editalsniffer-api\src\main\java\com\example\editalsniffer\api\model\Item.java
C:\workspace\editalsniffer-api\src\main\java\com\example\editalsniffer\api\service\PessoaService.java
C:\workspace\editalsniffer-api\src\main\java\com\example\editalsniffer\api\repository\RepositoryImpl.java
C:\workspace\editalsniffer-api\src\main\java\com\example\editalsniffer\api\model\Concorrente.java
C:\workspace\editalsniffer-api\src\main\java\com\example\editalsniffer\api\storage\S3.java
C:\workspace\editalsniffer-api\src\main\java\com\example\editalsniffer\api\model\Cidade.java
C:\workspace\editalsniffer-api\src\main\java\com\example\editalsniffer\api\repository\CategoriaRepository.java
C:\workspace\editalsniffer-api\src\main\java\com\example\editalsniffer\api\model\Pessoa_.java
C:\workspace\editalsniffer-api\src\main\java\com\example\editalsniffer\api\service\LancamentoService.java
C:\workspace\editalsniffer-api\src\main\java\com\example\editalsniffer\api\resource\CategoriaResource.java
C:\workspace\editalsniffer-api\src\main\java\com\example\editalsniffer\api\repository\EstadoRepository.java
C:\workspace\editalsniffer-api\src\main\java\com\example\editalsniffer\api\exceptionhandler\EditalsnifferExceptionHandler.java
C:\workspace\editalsniffer-api\src\main\java\com\example\editalsniffer\api\model\Estado.java
C:\workspace\editalsniffer-api\src\main\java\com\example\editalsniffer\api\dto\Anexo.java
C:\workspace\editalsniffer-api\src\main\java\com\example\editalsniffer\api\model\Lancamento.java
C:\workspace\editalsniffer-api\src\main\java\com\example\editalsniffer\api\resource\EditalResource.java
C:\workspace\editalsniffer-api\src\main\java\com\example\editalsniffer\api\dto\LancamentoEstatisticaPessoa.java
C:\workspace\editalsniffer-api\src\main\java\com\example\editalsniffer\api\repository\listener\EditalAnexoListener.java
C:\workspace\editalsniffer-api\src\main\java\com\example\editalsniffer\api\cors\CorsFilter.java
C:\workspace\editalsniffer-api\src\main\java\com\example\editalsniffer\api\security\UsuarioSistema.java
C:\workspace\editalsniffer-api\src\main\java\com\example\editalsniffer\api\repository\ConcorrenteRepository.java
C:\workspace\editalsniffer-api\src\main\java\com\example\editalsniffer\api\repository\ItemRepository.java
C:\workspace\editalsniffer-api\src\main\java\com\example\editalsniffer\api\event\listener\RecursoCriadoListener.java
C:\workspace\editalsniffer-api\src\main\java\com\example\editalsniffer\api\config\property\EditalsnifferApiProperty.java
C:\workspace\editalsniffer-api\src\main\java\com\example\editalsniffer\api\token\RefreshTokenCookiePreProcessorFilter.java
C:\workspace\editalsniffer-api\src\main\java\com\example\editalsniffer\api\token\RefreshTokenPostProcessor.java
C:\workspace\editalsniffer-api\src\main\java\com\example\editalsniffer\api\security\util\GeradorSenha.java
C:\workspace\editalsniffer-api\src\main\java\com\example\editalsniffer\api\model\Categoria_.java
C:\workspace\editalsniffer-api\src\main\java\com\example\editalsniffer\api\config\ResourceServerConfig.java
C:\workspace\editalsniffer-api\src\main\java\com\example\editalsniffer\api\model\Edital_.java
C:\workspace\editalsniffer-api\src\main\java\com\example\editalsniffer\api\service\EditalService.java
C:\workspace\editalsniffer-api\src\main\java\com\example\editalsniffer\api\model\Lancamento_.java
C:\workspace\editalsniffer-api\src\main\java\com\example\editalsniffer\api\event\RecursoCriadoEvent.java
C:\workspace\editalsniffer-api\src\main\java\com\example\editalsniffer\api\dto\LancamentoEstatisticaDia.java
C:\workspace\editalsniffer-api\src\main\java\com\example\editalsniffer\api\repository\EditalRepository.java
C:\workspace\editalsniffer-api\src\main\java\com\example\editalsniffer\api\repository\UsuarioRepository.java
C:\workspace\editalsniffer-api\src\main\java\com\example\editalsniffer\api\repository\lancamento\LancamentoRepositoryQuery.java
C:\workspace\editalsniffer-api\src\main\java\com\example\editalsniffer\api\dto\LancamentoEstatisticaCategoria.java
C:\workspace\editalsniffer-api\src\main\java\com\example\editalsniffer\api\config\BasicSecurityConfig.java
C:\workspace\editalsniffer-api\src\main\java\com\example\editalsniffer\api\config\S3Config.java
C:\workspace\editalsniffer-api\src\main\java\com\example\editalsniffer\api\model\Concorrente_.java
C:\workspace\editalsniffer-api\src\main\java\com\example\editalsniffer\api\service\ItemService.java
C:\workspace\editalsniffer-api\src\main\java\com\example\editalsniffer\api\config\token\CustomTokenEnhancer.java
C:\workspace\editalsniffer-api\src\main\java\com\example\editalsniffer\api\model\Item_.java
C:\workspace\editalsniffer-api\src\main\java\com\example\editalsniffer\api\model\TipoLancamento.java
C:\workspace\editalsniffer-api\src\main\java\com\example\editalsniffer\api\repository\projection\ResumoLancamento.java
C:\workspace\editalsniffer-api\src\main\java\com\example\editalsniffer\api\resource\CidadeResource.java
C:\workspace\editalsniffer-api\src\main\java\com\example\editalsniffer\api\config\AuthorizationServerConfig.java
C:\workspace\editalsniffer-api\src\main\java\com\example\editalsniffer\api\EditalsnifferApiApplication.java
C:\workspace\editalsniffer-api\src\main\java\com\example\editalsniffer\api\repository\item\ItemRepositoryImpl.java
C:\workspace\editalsniffer-api\src\main\java\com\example\editalsniffer\api\model\Estado_.java
C:\workspace\editalsniffer-api\src\main\java\com\example\editalsniffer\api\repository\filter\CategoriaFilter.java
C:\workspace\editalsniffer-api\src\main\java\com\example\editalsniffer\api\resource\ConcorrenteResource.java
C:\workspace\editalsniffer-api\src\main\java\com\example\editalsniffer\api\config\OAuthSecurityConfig.java
C:\workspace\editalsniffer-api\src\main\java\com\example\editalsniffer\api\model\Permissao_.java
C:\workspace\editalsniffer-api\src\main\java\com\example\editalsniffer\api\repository\listener\LancamentoAnexoListener.java
C:\workspace\editalsniffer-api\src\main\java\com\example\editalsniffer\api\model\Pessoa.java
C:\workspace\editalsniffer-api\src\main\java\com\example\editalsniffer\api\config\WebConfig.java
C:\workspace\editalsniffer-api\src\main\java\com\example\editalsniffer\api\repository\filter\LancamentoFilter.java
C:\workspace\editalsniffer-api\src\main\java\com\example\editalsniffer\api\security\AppUserDetailsService.java
C:\workspace\editalsniffer-api\src\main\java\com\example\editalsniffer\api\repository\categoria\CategoriaRepositoryImpl.java
C:\workspace\editalsniffer-api\src\main\java\com\example\editalsniffer\api\repository\edital\EditalRepositoryQuery.java
C:\workspace\editalsniffer-api\src\main\java\com\example\editalsniffer\api\model\Endereco.java
C:\workspace\editalsniffer-api\src\main\java\com\example\editalsniffer\api\repository\PessoaRepository.java
C:\workspace\editalsniffer-api\src\main\java\com\example\editalsniffer\api\resource\ItemResource.java
C:\workspace\editalsniffer-api\src\main\java\com\example\editalsniffer\api\resource\PessoaResource.java
